2 Cluster Analysis based on k-means – Machine Learning with Hyperparameter Tuning
…
data("USArrests")                              # 데이터 불러오기

USArrests %>%
  as_tibble

# A tibble: 50 × 4
   Murder Assault UrbanPop  Rape
    <dbl>   <int>    <int> <dbl>
 1   13.2     236       58  21.2
 2   10       263       48  44.5
 3    8.1     294       80  31  
 4    8.8     190       50  19.5
 5    9       276       91  40.6
 6    7.9     204       78  38.7
 7    3.3     110       77  11.1
 8    5.9     238       72  15.8
 9   15.4     335       80  31.9
10   17.4     211       60  25.8
# ℹ 40 more rows
…
Within cluster sum of squares by cluster:
[1] 3.970393 4.544595 2.689821 3.834536 5.417810 3.459916 1.052706
 (between_SS / total_SS =  84.0 %)

Available components:

[1] "cluster"      "centers"      "totss"        "withinss"     "tot.withinss" "betweenss"    "size"         "iter"         "ifault"      

# Training Dataset의 각 군집별 특징 시각화
USArrests.trd.clus <- mutate(USArrests.trd,
                             kMeansCluster = as.factor(kMeanModel$cluster))  # 예측 모형에 의한 군집 결과
USArrests.trd.clus %>%
  as_tibble

# A tibble: 40 × 5
   Murder Assault UrbanPop   Rape kMeansCluster
    <dbl>   <dbl>    <dbl>  <dbl> <fct>        
 1 -0.283  -0.663    0.566 -0.623 6            
 2 -0.830  -0.203    0.636  0.610 5            
 3  1.64    1.38    -1.12   0.206 7            
 4 -1.14   -1.06     0.144 -0.623 6            
 5  1.12    1.06     1.20   2.77  1            
 6 -1.02   -0.498    1.13   0.250 5            
 7 -0.355  -0.627   -0.769 -0.459 3            
 8  1.88    1.02     0.144  0.174 2            
 9 -0.759  -0.710   -0.137 -0.448 6            
10  1.36    0.303   -0.348  0.687 2            
# ℹ 30 more rows
…
