12 Gradient Boosting – Machine Learning with Hyperparameter Tuning
…
pacman::p_load("data.table", 
               "tidyverse", 
               "dplyr", "tidyr",
               "ggplot2", "GGally",
               "caret",
               "doParallel", "parallel")                                # For 병렬 처리

registerDoParallel(cores=detectCores())                                 # 사용할 Core 개수 지정   

titanic <- fread("../Titanic.csv")                                      # 데이터 불러오기

titanic %>%
  as_tibble

# A tibble: 891 × 11
   Survived Pclass Name                                                Sex      Age SibSp Parch Ticket            Fare Cabin  Embarked
      <int>  <int> <chr>                                               <chr>  <dbl> <int> <int> <chr>            <dbl> <chr>  <chr>   
 1        0      3 Braund, Mr. Owen Harris                             male      22     1     0 A/5 21171         7.25 ""     S       
 2        1      1 Cumings, Mrs. John Bradley (Florence Briggs Thayer) female    38     1     0 PC 17599         71.3  "C85"  C       
 3        1      3 Heikkinen, Miss. Laina                              female    26     0     0 STON/O2. 3101282  7.92 ""     S       
 4        1      1 Futrelle, Mrs. Jacques Heath (Lily May Peel)        female    35     1     0 113803           53.1  "C123" S       
 5        0      3 Allen, Mr. William Henry                            male      35     0     0 373450            8.05 ""     S       
 6        0      3 Moran, Mr. James                                    male      NA     0     0 330877            8.46 ""     Q       
 7        0      1 McCarthy, Mr. Timothy J                             male      54     0     0 17463            51.9  "E46"  S       
 8        0      3 Palsson, Master. Gosta Leonard                      male       2     3     1 349909           21.1  ""     S       
 9        1      3 Johnson, Mrs. Oscar W (Elisabeth Vilhelmina Berg)   female    27     0     2 347742           11.1  ""     S       
10        1      2 Nasser, Mrs. Nicholas (Adele Achem)                 female    14     1     0 237736           30.1  ""     C       
# ℹ 881 more rows
…
       'Positive' Class : yes             

12.7.2 ROC 곡선

# 예측 확률 생성
test.gbm.prob <- predict(gbm.tune.fit, 
                         newdata = titanic.ted.Imp[,-1],# Test Dataset including Only 예측 변수  
                         type = "prob")                 # 예측 확률 생성     

test.gbm.prob %>%
  as_tibble

# A tibble: 266 × 2
       no    yes
    <dbl>  <dbl>
 1 0.0427 0.957 
 2 0.764  0.236 
 3 0.922  0.0776
 4 0.125  0.875 
 5 0.649  0.351 
 6 0.842  0.158 
 7 0.510  0.490 
 8 0.943  0.0569
 9 0.944  0.0555
10 0.0294 0.971 
# ℹ 256 more rows
…
