7 LASSO Regression – Machine Learning with Hyperparameter Tuning
…
pacman::p_load("data.table", 
               "tidyverse", 
               "dplyr", "tidyr",
               "ggplot2", "GGally",
               "caret",
               "doParallel", "parallel")                                # For 병렬 처리

registerDoParallel(cores=detectCores())                                 # 사용할 Core 개수 지정     

titanic <- fread("../Titanic.csv")                                      # 데이터 불러오기

titanic %>%
  as_tibble

# A tibble: 891 × 11
   Survived Pclass Name                                                Sex      Age SibSp Parch Ticket            Fare Cabin  Embarked
      <int>  <int> <chr>                                               <chr>  <dbl> <int> <int> <chr>            <dbl> <chr>  <chr>   
 1        0      3 Braund, Mr. Owen Harris                             male      22     1     0 A/5 21171         7.25 ""     S       
 2        1      1 Cumings, Mrs. John Bradley (Florence Briggs Thayer) female    38     1     0 PC 17599         71.3  "C85"  C       
 3        1      3 Heikkinen, Miss. Laina                              female    26     0     0 STON/O2. 3101282  7.92 ""     S       
 4        1      1 Futrelle, Mrs. Jacques Heath (Lily May Peel)        female    35     1     0 113803           53.1  "C123" S       
 5        0      3 Allen, Mr. William Henry                            male      35     0     0 373450            8.05 ""     S       
 6        0      3 Moran, Mr. James                                    male      NA     0     0 330877            8.46 ""     Q       
 7        0      1 McCarthy, Mr. Timothy J                             male      54     0     0 17463            51.9  "E46"  S       
 8        0      3 Palsson, Master. Gosta Leonard                      male       2     3     1 349909           21.1  ""     S       
 9        1      3 Johnson, Mrs. Oscar W (Elisabeth Vilhelmina Berg)   female    27     0     2 347742           11.1  ""     S       
10        1      2 Nasser, Mrs. Nicholas (Adele Achem)                 female    14     1     0 237736           30.1  ""     C       
# ℹ 881 more rows
…
# 3. Select Variables used for Analysis
titanic1 <- titanic %>% 
  select(Survived, Pclass, Sex, Age, Fare, FamSize)                     # 분석에 사용할 변수 선택

titanic1 %>%
  as_tibble

# A tibble: 891 × 6
   Survived Pclass Sex      Age  Fare FamSize
   <fct>    <fct>  <fct>  <dbl> <dbl>   <int>
 1 no       3      male      22  7.25       1
 2 yes      1      female    38 71.3        1
 3 yes      3      female    26  7.92       0
 4 yes      1      female    35 53.1        1
 5 no       3      male      35  8.05       0
 6 no       3      male      NA  8.46       0
 7 no       1      male      54 51.9        0
 8 no       3      male       2 21.1        4
 9 yes      3      female    27 11.1        2
10 yes      2      female    14 30.1        1
# ℹ 881 more rows
…
범주형 예측 변수(“Pclass”, “Sex”)는 더미 변환이 수행되었는데, 예를 들어, Pclass2는 탑승객의 티켓 등급이 2등급인 경우 “1”값을 가지고 2등급이 아니면 “0”값을 가진다.

7.7 모형 평가

Caution! 모형 평가를 위해 Test Dataset에 대한 예측 class/확률 이 필요하며, 함수 predict()를 이용하여 생성한다.

# 예측 class 생성
test.lasso.class <- predict(lasso.fit, 
                            newdata = titanic.ted.Imp[,-1])   # Test Dataset including Only 예측 변수  

test.lasso.class %>%                                      
  as_tibble

# A tibble: 266 × 1
   value
   <fct>
 1 yes  
 2 no   
 3 no   
 4 yes  
 5 no   
 6 no   
 7 yes  
 8 no   
 9 no   
10 yes  
# ℹ 256 more rows
…
       'Positive' Class : yes             

7.7.2 ROC 곡선

# 예측 확률 생성
test.lasso.prob <- predict(lasso.fit, 
                           newdata = titanic.ted.Imp[,-1],# Test Dataset including Only 예측 변수 
                           type = "prob")                 # 예측 확률 생성

test.lasso.prob %>%                                                         
  as_tibble

# A tibble: 266 × 2
      no   yes
   <dbl> <dbl>
 1 0.177 0.823
 2 0.701 0.299
 3 0.862 0.138
 4 0.242 0.758
 5 0.870 0.130
 6 0.676 0.324
 7 0.395 0.605
 8 0.580 0.420
 9 0.879 0.121
10 0.149 0.851
# ℹ 256 more rows
…
