6 Support Vector Machine with Radial Basis Kernel – Machine Learning with Hyperparameter Tuning
…
pacman::p_load("data.table", 
               "tidyverse", 
               "dplyr", "tidyr",
               "ggplot2", "GGally",
               "caret",
               "doParallel", "parallel")                                # For 병렬 처리

registerDoParallel(cores=detectCores())                                 # 사용할 Core 개수 지정

titanic <- fread("../Titanic.csv")                                      # 데이터 불러오기

titanic %>%
  as_tibble

# A tibble: 891 × 11
   Survived Pclass Name                                                Sex      Age SibSp Parch Ticket            Fare Cabin  Embarked
      <int>  <int> <chr>                                               <chr>  <dbl> <int> <int> <chr>            <dbl> <chr>  <chr>   
 1        0      3 Braund, Mr. Owen Harris                             male      22     1     0 A/5 21171         7.25 ""     S       
 2        1      1 Cumings, Mrs. John Bradley (Florence Briggs Thayer) female    38     1     0 PC 17599         71.3  "C85"  C       
 3        1      3 Heikkinen, Miss. Laina                              female    26     0     0 STON/O2. 3101282  7.92 ""     S       
 4        1      1 Futrelle, Mrs. Jacques Heath (Lily May Peel)        female    35     1     0 113803           53.1  "C123" S       
 5        0      3 Allen, Mr. William Henry                            male      35     0     0 373450            8.05 ""     S       
 6        0      3 Moran, Mr. James                                    male      NA     0     0 330877            8.46 ""     Q       
 7        0      1 McCarthy, Mr. Timothy J                             male      54     0     0 17463            51.9  "E46"  S       
 8        0      3 Palsson, Master. Gosta Leonard                      male       2     3     1 349909           21.1  ""     S       
 9        1      3 Johnson, Mrs. Oscar W (Elisabeth Vilhelmina Berg)   female    27     0     2 347742           11.1  ""     S       
10        1      2 Nasser, Mrs. Nicholas (Adele Achem)                 female    14     1     0 237736           30.1  ""     C       
# ℹ 881 more rows
…
# Combine Target with 변환된 예측 변수
titanic.df <- data.frame(Survived = titanic1$Survived, 
                         titanic.Var)

titanic.df %>%
  as_tibble

# A tibble: 891 × 9
   Survived Pclass.1 Pclass.2 Pclass.3 Sex.female Sex.male   Age  Fare FamSize
   <fct>       <dbl>    <dbl>    <dbl>      <dbl>    <dbl> <dbl> <dbl>   <dbl>
 1 no              0        0        1          0        1    22  7.25       1
 2 yes             1        0        0          1        0    38 71.3        1
 3 yes             0        0        1          1        0    26  7.92       0
 4 yes             1        0        0          1        0    35 53.1        1
 5 no              0        0        1          0        1    35  8.05       0
 6 no              0        0        1          0        1    NA  8.46       0
 7 no              1        0        0          0        1    54 51.9        0
 8 no              0        0        1          0        1     2 21.1        4
 9 yes             0        0        1          1        0    27 11.1        2
10 yes             0        1        0          1        0    14 30.1        1
# ℹ 881 more rows
…
Result! (sigma = 0.5, C = 0.1)일 때 정확도가 가장 높다는 것을 알 수 있으며, (sigma = 0.5, C = 0.1)를 가지는 모형을 최적의 훈련된 모형으로 선택한다.

6.7 모형 평가

Caution! 모형 평가를 위해 Test Dataset에 대한 예측 class/확률 이 필요하며, 함수 predict()를 이용하여 생성한다.

# 예측 class 생성
svm.rd.pred <- predict(svm.rd.grid.fit,                                        
                        newdata = titanic.ted.Imp[,-1])     # Test Dataset including Only 예측 변수     

svm.rd.pred %>%
  as_tibble

# A tibble: 266 × 1
   value
   <fct>
 1 yes  
 2 no   
 3 no   
 4 yes  
 5 no   
 6 no   
 7 yes  
 8 no   
 9 no   
10 yes  
# ℹ 256 more rows
…
       'Positive' Class : yes             

6.7.2 ROC 곡선

# 예측 확률 생성 
test.svm.prob <- predict(svm.rd.grid.fit, 
                         newdata = titanic.ted.Imp[,-1], # Test Dataset including Only 예측 변수      
                         type = "prob")                  # 예측 확률 생성 

test.svm.prob %>%
  as_tibble

# A tibble: 266 × 2
       no   yes
    <dbl> <dbl>
 1 0.0536 0.946
 2 0.869  0.131
 3 0.869  0.131
 4 0.373  0.627
 5 0.805  0.195
 6 0.869  0.131
 7 0.199  0.801
 8 0.813  0.187
 9 0.868  0.132
10 0.263  0.737
# ℹ 256 more rows
…
