13 XGBoost – Machine Learning with Hyperparameter Tuning
…
registerDoParallel(cores=detectCores())                                 # 사용할 Core 개수 지정  

titanic <- fread("../Titanic.csv")                                      # 데이터 불러오기

titanic %>%
  as_tibble

# A tibble: 891 × 11
   Survived Pclass Name                                                Sex      Age SibSp Parch Ticket            Fare Cabin  Embarked
      <int>  <int> <chr>                                               <chr>  <dbl> <int> <int> <chr>            <dbl> <chr>  <chr>   
 1        0      3 Braund, Mr. Owen Harris                             male      22     1     0 A/5 21171         7.25 ""     S       
 2        1      1 Cumings, Mrs. John Bradley (Florence Briggs Thayer) female    38     1     0 PC 17599         71.3  "C85"  C       
 3        1      3 Heikkinen, Miss. Laina                              female    26     0     0 STON/O2. 3101282  7.92 ""     S       
 4        1      1 Futrelle, Mrs. Jacques Heath (Lily May Peel)        female    35     1     0 113803           53.1  "C123" S       
 5        0      3 Allen, Mr. William Henry                            male      35     0     0 373450            8.05 ""     S       
 6        0      3 Moran, Mr. James                                    male      NA     0     0 330877            8.46 ""     Q       
 7        0      1 McCarthy, Mr. Timothy J                             male      54     0     0 17463            51.9  "E46"  S       
 8        0      3 Palsson, Master. Gosta Leonard                      male       2     3     1 349909           21.1  ""     S       
 9        1      3 Johnson, Mrs. Oscar W (Elisabeth Vilhelmina Berg)   female    27     0     2 347742           11.1  ""     S       
10        1      2 Nasser, Mrs. Nicholas (Adele Achem)                 female    14     1     0 237736           30.1  ""     C       
# ℹ 881 more rows
…
       'Positive' Class : yes             

13.7.2 ROC 곡선

# 예측 확률 생성
test.xgb.prob <- predict(xgb.tune.fit, 
                         newdata = titanic.ted.Imp[,-1], # Test Dataset including Only 예측 변수  
                         type = "prob")                  # 예측 확률 생성     

test.xgb.prob %>%
  as_tibble

# A tibble: 266 × 2
       no    yes
    <dbl>  <dbl>
 1 0.0600 0.940 
 2 0.757  0.243 
 3 0.960  0.0397
 4 0.172  0.828 
 5 0.642  0.358 
 6 0.860  0.140 
 7 0.453  0.547 
 8 0.978  0.0223
 9 0.957  0.0431
10 0.0349 0.965 
# ℹ 256 more rows
…
